// LAVR4A.TAB - 4-bit processor from Lavr
*ASM TABLE LAVR4A
NOP      #00
MVA_0    #10
MVA_1    #11
MVA_2    #12
MVA_3    #13
MVA_4    #14
MVA_5    #15
MVA_6    #16
MVA_7    #17
MVA_8    #18
MVA_9    #19
MVA_10   #1A
MVA_11   #1B
MVA_12   #1C
MVA_13   #1D
MVA_14   #1E
MVA_15   #1F
LDA      #20
STA      #30
MVB_0    #40
MVB_1    #41
MVB_2    #42
MVB_3    #43
MVB_4    #44
MVB_5    #45
MVB_6    #46
MVB_7    #47
MVB_8    #48
MVB_9    #49
MVB_10   #4A
MVB_11   #4B
MVB_12   #4C
MVB_13   #4D
MVB_14   #4E
MVB_15   #4F
LDB      #50
SEL_0    #60
SEL_1    #61
SEL_2    #62
SEL_3    #63
SEL_4    #64
SEL_5    #65
SEL_6    #66
SEL_7    #67
SEL_8    #68
SEL_9    #69
SEL_10   #6A
SEL_11   #6B
SEL_12   #6C
SEL_13   #6D
SEL_14   #6E
SEL_15   #6F
HLT      #70
RET_0    #80
RET_1    #81
RET_2    #82
RET_3    #83
RET_4    #84
RET_5    #85
RET_6    #86
RET_7    #87
RET_8    #88
RET_9    #89
RET_10   #8A
RET_11   #8B
RET_12   #8C
RET_13   #8D
RET_14   #8E
RET_15   #8F
RST_0    #90
RST_1    #91
RST_2    #92
RST_3    #93
RST_4    #94
RST_5    #95
RST_6    #96
RST_7    #97
RST_8    #98
RST_9    #99
RST_10   #9A
RST_11   #9B
RST_12   #9C
RST_13   #9D
RST_14   #9E
RST_15   #9F
SKIP_    #A0 // noskip
SKIP_C   #A1
SKIP_Z   #A2
SKIP_ZC  #A3
SKIP_S   #A4
SKIP_SC  #A5
SKIP_SZ  #A6
SKIP_SZC #A7
SKIP_N   #A8 // noskip
SKIP_NC  #A9
SKIP_NZ  #AA
SKIP_NZC #AB
SKIP_NS  #AC
SKIP_NSC #AD
SKIP_NSZ #AE
SKIP     #AF
ADD      #B0
XOR      #B1
AND      #B2
ORA      #B3
SUB      #B4
CMA      #B5
INR      #B6
DCR      #B7
ADC      #B8
SBB      #B9
STC      #BA
CLC      #BB
CMC      #BC
SFA      #BD
ROL      #BE
ROR      #BF
OUT_0    #C0
OUT_1    #C1
OUT_2    #C2
OUT_3    #C3
OUT_4    #C4
OUT_5    #C5
OUT_6    #C6
OUT_7    #C7
OUT_8    #C8
OUT_9    #C9
OUT_10   #CA
OUT_11   #CB
OUT_12   #CC
OUT_13   #CD
OUT_14   #CE
OUT_15   #CF
IN_0     #D0
IN_1     #D1
IN_2     #D2
IN_3     #D3
IN_4     #D4
IN_5     #D5
IN_6     #D6
IN_7     #D7
IN_8     #D8
IN_9     #D9
IN_10    #DA
IN_11    #DB
IN_12    #DC
IN_13    #DD
IN_14    #DE
IN_15    #DF
JMI_0    #E0 B
JMI_1    #E1 B
JMI_2    #E2 B
JMI_3    #E3 B
JMI_4    #E4 B
JMI_5    #E5 B
JMI_6    #E6 B
JMI_7    #E7 B
JMI_8    #E8 B
JMI_9    #E9 B
JMI_10   #EA B
JMI_11   #EB B
JMI_12   #EC B
JMI_13   #ED B
JMI_14   #EE B
JMI_15   #EF B
JMP_0    #F0 B
JMP_1    #F1 B
JMP_2    #F2 B
JMP_3    #F3 B
JMP_4    #F4 B
JMP_5    #F5 B
JMP_6    #F6 B
JMP_7    #F7 B
JMP_8    #F8 B
JMP_9    #F9 B
JMP_10   #FA B
JMP_11   #FB B
JMP_12   #FC B
JMP_13   #FD B
JMP_14   #FE B
JMP_15   #FF B
*
